…
## NetCDF das forçantes meteorológicas

Para gerar o arquivo NetCDF com as séries temporais das forçantes
hidrometeorológicas médias na área da BH, utilizaremos o conjunto de
dados `forcdata74` disponibilizado com este pacote.

``` r
forcdata74
#> # A tibble: 13,149 x 5
#>    date          id      pr   pet q_obs
#>    <date>     <dbl>   <dbl> <dbl> <dbl>
#>  1 1980-01-01    74  0.363   5.37  1.81
#>  2 1980-01-02    74  0.214   5.01  1.64
#>  3 1980-01-03    74  0.169   5.38  1.43
#>  4 1980-01-04    74  0.226   5.53  1.34
#>  5 1980-01-05    74  0.0616  5.51  1.22
#>  6 1980-01-06    74  1.36    4.67  1.17
#>  7 1980-01-07    74 28.1     3.55  1.27
#>  8 1980-01-08    74  6.70    3.57  1.44
#>  9 1980-01-09    74 12.4     3.40  1.43
#> 10 1980-01-10    74 12.2     4.99  1.38
#> # … with 13,139 more rows
```
…
